<?xml version="1.0" encoding="UTF-8"?>
<svg xmlns="http://www.w3.org/2000/svg" xmlns:xlink="http://www.w3.org/1999/xlink" width="48pt" height="48pt" viewBox="0 0 48 48" version="1.1">
<g id="surface3183812">
<path style=" stroke:none;fill-rule:evenodd;fill:rgb(100%,100%,100%);fill-opacity:1;" d="M 22 4 L 22 22 L 4 22 L 4 26 L 22 26 L 22 44 L 26 44 L 26 26 L 44 26 L 44 22 L 26 22 L 26 4 Z M 22 4 "/>
</g>
</svg>
