<svg width="40" height="40" viewBox="0 0 40 40" fill="none" xmlns="http://www.w3.org/2000/svg">
<path fill-rule="evenodd" clip-rule="evenodd" d="M24.0893 27.2852C28.7034 25.6129 32 21.1915 32 16C32 9.37258 26.6274 4 20 4C13.3726 4 8 9.37258 8 16C8 21.0361 11.1023 25.3476 15.5 27.1277C15.6518 27.1892 15.8051 27.2476 15.96 27.3029C17.401 27.9095 18.6085 28.9737 19.3908 30.3379L19.6373 30.7675C19.799 31.0495 20.2049 31.0517 20.3697 30.7716L20.6575 30.2822C21.4497 28.9355 22.6554 27.8858 24.0893 27.2852ZM20 36C21.1046 36 22 35.1046 22 34C22 32.8954 21.1046 32 20 32C18.8954 32 18 32.8954 18 34C18 35.1046 18.8954 36 20 36Z" fill="#F42A3E"/>
<circle cx="20" cy="16.2498" r="3" fill="white"/>
</svg>
